Third Week: Exploratory Data Analysis
…
Difstat %>%
  filter(Dif > 3 * (notPlayed) & notPlayed >0) %>% 
  group_by(Season) %>% 
  summarise(team=team[which.max(notPlayed)],notPlayed=max(notPlayed)) %>% 
  arrange(-notPlayed) -> SoonFall

     Sporting Gijon   7         .

SoonFall

## # A tibble: 46 x 3
##    Season             team notPlayed
##     <dbl>            <chr>     <dbl>
##  1   1997   Sporting Gijon         7
##  2   1981     CD Castellon         5
##  3   1976        CD Malaga         4
##  4   1988         Elche CF         4
##  5   2003      Real Murcia         4
##  6   1928 Racing Santander         3
##  7   1943       Celta Vigo         3
##  8   1958       Celta Vigo         3
##  9   1974      Real Murcia         3
## 10   1977         Cadiz CF         3
## # ... with 36 more rows
…
